    cookies = {
        'JSESSIONID': '"ajax:0661632765323397901"',
        'bcookie': '"v=2&6309d20e-7549-4afd-843b-fa81de90a716"',
        'bscookie': '"v=1&2022060713335924318f56-bdfe-426f-8627-2b928d41657aAQGXDkG919KIzXH_W6PiPkhCehKzN5wn"',
        'li_rm': 'AQEHOH0wBeRUZQAAAYE-X0WlyfZDk6CPBYXw78kvaI8Zp-l_YFizZMpYCjS_wZWTaxwuZ55HjPHqkQD6DQIWDlYpRc65GtIfIm_DidYqsXpx7nGfe7WOLXDw',
        'G_ENABLED_IDPS': 'google',
        'AMCV_14215E3D5995C57C0A495C55%40AdobeOrg': '-637568504%7CMCIDTS%7C19198%7CMCMID%7C08006135266392602592245659608591030438%7CMCAAMLH-1659249166%7C12%7CMCAAMB-1659249166%7C6G1ynYcLPuiQxYZrsz_pkqfLG9yMXBpb2zX5dvJdYQJzPXImdj0y%7CMCOPTOUT-1658651566s%7CNONE%7CvVersion%7C5.1.1%7CMCCIDH%7C357244978',
        'aam_uuid': '08521555878854168722298243977875303277',
        'li_at': 'AQEDASmuHvQBo7bjAAABgT5fdMYAAAGCSWs1i00AmxmQ5jB6TJGLUqz9kpAURmeRAIrFHMM_VELeoHviC3X0dvUpPX5XzmLIvN7OJOcqJZZFiD7tKnIjdL0NBk9LCRy9XVQYHDM04Nbu91ZUyKVrVmjQ',
        'liap': 'true',
        'timezone': 'Asia/Kolkata',
        'li_theme': 'light',
        'li_theme_set': 'app',
        'UserMatchHistory': 'AQKjyJGfLn0-BgAAAYIu58fD5LkHKBvOnUE76YA8Nw4tk6AJV1zLwmCW65eGqP4YkEYOaxCbCZq_z7Ui0S8VAVIyp0o7s-yRS8sCug6cD_Rks2ftabfwOuGUTLxcq75DqwHBQ1h5q-04PVo-PAdCeWqIbGHtuTrRaLggVw79E6nykdWccNNaG6Sk3DDWEMakGCAO8SL3sIKnbbItqUgtWto58uRHLAiMULa-RKhlHnXfs0Ug2p8FL7ufaqxVm9xaskF5C9XQ7kFZo5ewNyM7F2qiOUkwDmRuDEuBsmU',
        'li_sugr': '478c97f3-40e9-4216-8889-67c6b118819b',
        '_guid': '351831f3-878f-42d4-91d3-169e41e55c07',
        'AnalyticsSyncHistory': 'AQLsjy_uwi05iQAAAYIlXs6sDXjGmt9Pzwu1dTBDY4Ns9PMtWJgR8x9wg8-CMWA3YfF7PVF9kJ9a5fx6ULy6fQ',
        'lms_ads': 'AQF5PhqSlGXn-wAAAYIlXtQWwmIK5UNWfJaegmpaHRAZo7ak3ebJS6tpFKHLDs7aLZP8MCENRIVksNS0c7n-0NcgsLcRz9gD',
        'lms_analytics': 'AQF5PhqSlGXn-wAAAYIlXtQWwmIK5UNWfJaegmpaHRAZo7ak3ebJS6tpFKHLDs7aLZP8MCENRIVksNS0c7n-0NcgsLcRz9gD',
        '_gcl_au': '1.1.1869563648.1654608861',
        'gpv_pn': 'mobile.linkedin.com%2F',
        's_tslv': '1658644366578',
        'lidc': '"b=VB44:s=V:r=V:a=V:p=V:g=3614:u=511:x=1:i=1658644321:t=1658650700:v=2:sig=AQFvE-FYj_0G1v2JkCalpQeMWOBVZpzs"',
        'lang': 'v=2&lang=en-us',
        'pushPermState': 'default',
        'li_theme_set': 'app',
        'SID': '4cc89c29-8e4f-4e1f-b6ad-66be07c52613',
        'VID': 'V_2022_07_24_06_366',
        'at_check': 'true',
        'mbox': 'session#7ede31704c1e41a480f77e24d5af0f5f#1658646227|PC#7ede31704c1e41a480f77e24d5af0f5f.31_0#1674196367',
        'AMCVS_14215E3D5995C57C0A495C55%40AdobeOrg': '1',
        's_ppv': 'mobile.linkedin.com%2F%2C72%2C72%2C788%2C1%2C1',
        's_ips': '788',
        's_tp': '1097',
        's_cc': 'true',
        's_plt': '7.24',
        's_pltp': 'mobile.linkedin.com%2F',
    }